inv_exi^bodega^1^2^1^
inv_exi^casa^0^2^2^
inv_exi^correl^2^4^3^
inv_exi^ultimoc^8^2562^4^
inv_exi^ultimopv^8^2562^5^
inv_exi^costo^8^2562^6^
inv_exi^margen^5^2562^7^
inv_exi^preciov^8^2562^8^
inv_exi^existi^5^2562^9^
inv_exi^existd^5^2562^10^
inv_exi^exi_sug^5^2562^11^
inv_exi^fechau_venta^7^4^12^
inv_exi^fechamov^7^4^13^
inv_exi^tipomov^0^1^14^
inv_exi^minimo^5^2050^15^
inv_exi^maximo^5^2050^16^
inv_exi^estante^0^3^17^
inv_exi^rack^1^2^18^
inv_exi^tramo^1^2^19^
inv_exi^estatus^0^1^20^
